%YAML 1.1
%TAG !u! tag:unity3d.com,2011:
--- !u!114 &11400000
MonoBehaviour:
  m_ObjectHideFlags: 0
  m_PrefabParentObject: {fileID: 0}
  m_PrefabInternal: {fileID: 0}
  m_GameObject: {fileID: 0}
  m_Enabled: 1
  m_EditorHideFlags: 0
  m_Script: {fileID: -1097633651, guid: b5a7519e94754fb4a8ea0c272031db78, type: 3}
  m_Name: DialogueDatabase
  m_EditorClassIdentifier: 
  version: 
  author: 
  description: 
  globalUserScript: 
  emphasisSettings:
  - color: {r: 1, g: 1, b: 1, a: 1}
    bold: 0
    italic: 0
    underline: 0
  - color: {r: 1, g: 0, b: 0, a: 1}
    bold: 0
    italic: 0
    underline: 0
  - color: {r: 0, g: 1, b: 0, a: 1}
    bold: 0
    italic: 0
    underline: 0
  - color: {r: 0, g: 0, b: 1, a: 1}
    bold: 0
    italic: 0
    underline: 0
  actors:
  - id: 1
    fields:
    - title: Name
      value: Nandy
      type: 0
      typeString: CustomFieldType_Text
    - title: Pictures
      value: '[]'
      type: 3
      typeString: CustomFieldType_Files
    - title: Description
      value: 
      type: 0
      typeString: CustomFieldType_Text
    - title: IsPlayer
      value: True
      type: 2
      typeString: CustomFieldType_Boolean
    portrait: {fileID: 0}
    alternatePortraits: []
  - id: 2
    fields:
    - title: Name
      value: Jack Rackham
      type: 0
      typeString: CustomFieldType_Text
    - title: Pictures
      value: '[]'
      type: 3
      typeString: CustomFieldType_Files
    - title: Description
      value: 
      type: 0
      typeString: CustomFieldType_Text
    - title: IsPlayer
      value: False
      type: 2
      typeString: CustomFieldType_Boolean
    portrait: {fileID: 0}
    alternatePortraits: []
  - id: 3
    fields:
    - title: Name
      value: Anne Bonny
      type: 0
      typeString: CustomFieldType_Text
    - title: Pictures
      value: '[]'
      type: 3
      typeString: CustomFieldType_Files
    - title: Description
      value: 
      type: 0
      typeString: CustomFieldType_Text
    - title: IsPlayer
      value: False
      type: 2
      typeString: CustomFieldType_Boolean
    portrait: {fileID: 0}
    alternatePortraits: []
  items:
  - id: 1
    fields:
    - title: Name
      value: Ms. Bonny
      type: 0
      typeString: CustomFieldType_Text
    - title: Pictures
      value: '[]'
      type: 3
      typeString: CustomFieldType_Files
    - title: Description
      value: Captain Jack Rackham has asked Nandy to keep an eye out for his sweetheart
        Ms. Bonny, who was tricked by the evil pirate Edward Teach. The Captain warns
        that Ms. Bonny may be difficult to persuade...
      type: 0
      typeString: CustomFieldType_Text
    - title: Success Description
      value: After convincing Ms. Bonny to leave Blackbeard's side, she returned to
        the waiting Captain Jack.
      type: 0
      typeString: CustomFieldType_Text
    - title: Failure Description
      value: 
      type: 0
      typeString: CustomFieldType_Text
    - title: State
      value: (None)
      type: 0
      typeString: CustomFieldType_QuestState
    - title: Is Item
      value: False
      type: 2
      typeString: CustomFieldType_Boolean
    - title: Group
      value: Jack Rackham
      type: 0
      typeString: CustomFieldType_Text
    - title: Trackable
      value: True
      type: 2
      typeString: CustomFieldType_Boolean
    - title: Track
      value: True
      type: 2
      typeString: CustomFieldType_Boolean
    - title: Abandonable
      value: False
      type: 2
      typeString: CustomFieldType_Boolean
  locations: []
  variables:
  - id: 1
    fields:
    - title: Name
      value: Alert
      type: 0
      typeString: 
    - title: Initial Value
      value: 
      type: 0
      typeString: CustomFieldType_Text
    - title: Description
      value: 
      type: 0
      typeString: 
  - id: 2
    fields:
    - title: Name
      value: hasMetPlayer
      type: 0
      typeString: 
    - title: Initial Value
      value: False
      type: 2
      typeString: CustomFieldType_Boolean
    - title: Description
      value: 
      type: 0
      typeString: 
  - id: 3
    fields:
    - title: Name
      value: foundBonny
      type: 0
      typeString: 
    - title: Initial Value
      value: False
      type: 2
      typeString: CustomFieldType_Boolean
    - title: Description
      value: 
      type: 0
      typeString: 
  - id: 4
    fields:
    - title: Name
      value: sympathy
      type: 0
      typeString: 
    - title: Initial Value
      value: 0
      type: 1
      typeString: CustomFieldType_Number
    - title: Description
      value: 
      type: 0
      typeString: 
  conversations:
  - id: 1
    fields:
    - title: Title
      value: JackRackham0
      type: 0
      typeString: 
    - title: Pictures
      value: '[]'
      type: 3
      typeString: 
    - title: Description
      value: 
      type: 0
      typeString: 
    - title: Actor
      value: 1
      type: 5
      typeString: CustomFieldType_Actor
    - title: Conversant
      value: 2
      type: 5
      typeString: CustomFieldType_Actor
    overrideSettings:
      useOverrides: 0
      overrideSubtitleSettings: 0
      showNPCSubtitlesDuringLine: 1
      showNPCSubtitlesWithResponses: 1
      showPCSubtitlesDuringLine: 0
      subtitleCharsPerSecond: 30
      minSubtitleSeconds: 2
      continueButton: 0
      overrideSequenceSettings: 0
      defaultSequence: 
      defaultPlayerSequence: 
      defaultResponseMenuSequence: 
      overrideInputSettings: 0
      alwaysForceResponseMenu: 1
      responseTimeout: 0
    nodeColor: 
    dialogueEntries:
    - id: 0
      fields:
      - title: Title
        value: START
        type: 0
        typeString: 
      - title: Pictures
        value: '[]'
        type: 3
        typeString: 
      - title: Description
        value: 
        type: 0
        typeString: 
      - title: Actor
        value: 1
        type: 5
        typeString: 
      - title: Conversant
        value: 2
        type: 5
        typeString: 
      - title: Menu Text
        value: 
        type: 0
        typeString: 
      - title: Dialogue Text
        value: 
        type: 0
        typeString: 
      - title: Parenthetical
        value: 
        type: 0
        typeString: 
      - title: Audio Files
        value: '[]'
        type: 3
        typeString: 
      - title: Video File
        value: 
        type: 0
        typeString: 
      - title: Sequence
        value: None()
        type: 0
        typeString: 
      conversationID: 1
      isRoot: 0
      isGroup: 0
      nodeColor: 
      delaySimStatus: 0
      falseConditionAction: Block
      conditionPriority: 2
      outgoingLinks:
      - originConversationID: 1
        originDialogueID: 0
        destinationConversationID: 1
        destinationDialogueID: 1
        isConnector: 0
        priority: 2
      - originConversationID: 1
        originDialogueID: 0
        destinationConversationID: 1
        destinationDialogueID: 19
        isConnector: 0
        priority: 2
      - originConversationID: 1
        originDialogueID: 0
        destinationConversationID: 1
        destinationDialogueID: 18
        isConnector: 0
        priority: 2
      conditionsString: 
      userScript: 'SetQuestState("Ms. Bonny", "unassigned");

'
      onExecute:
        m_PersistentCalls:
          m_Calls:
          - m_Target: {fileID: 11400000, guid: b61c9680be9edc144a1914a0c533631e, type: 2}
            m_MethodName: SyncStats
            m_Mode: 1
            m_Arguments:
              m_ObjectArgument: {fileID: 0}
              m_ObjectArgumentAssemblyTypeName: UnityEngine.Object, UnityEngine
              m_IntArgument: 0
              m_FloatArgument: 0
              m_StringArgument: 
              m_BoolArgument: 0
            m_CallState: 2
        m_TypeName: UnityEngine.Events.UnityEvent, UnityEngine, Version=0.0.0.0, Culture=neutral,
          PublicKeyToken=null
      canvasRect:
        serializedVersion: 2
        x: 58.64708
        y: 461.7821
        width: 160
        height: 30
    - id: 1
      fields:
      - title: Title
        value: New Dialogue Entry
        type: 0
        typeString: 
      - title: Pictures
        value: '[]'
        type: 3
        typeString: 
      - title: Description
        value: 
        type: 0
        typeString: 
      - title: Actor
        value: 2
        type: 5
        typeString: 
      - title: Conversant
        value: 1
        type: 5
        typeString: 
      - title: Menu Text
        value: 
        type: 0
        typeString: 
      - title: Dialogue Text
        value: Arr! Who goes there?
        type: 0
        typeString: 
      - title: Parenthetical
        value: 
        type: 0
        typeString: 
      - title: Audio Files
        value: '[]'
        type: 3
        typeString: 
      - title: Video File
        value: 
        type: 0
        typeString: 
      - title: Sequence
        value: 
        type: 0
        typeString: 
      conversationID: 1
      isRoot: 0
      isGroup: 0
      nodeColor: 
      delaySimStatus: 0
      falseConditionAction: Block
      conditionPriority: 2
      outgoingLinks:
      - originConversationID: 1
        originDialogueID: 1
        destinationConversationID: 1
        destinationDialogueID: 4
        isConnector: 0
        priority: 2
      conditionsString: Variable["hasMetPlayer"] == false
      userScript: SetQuestState("Ms. Bonny", "unassigned")
      onExecute:
        m_PersistentCalls:
          m_Calls: []
        m_TypeName: UnityEngine.Events.UnityEvent, UnityEngine, Version=0.0.0.0, Culture=neutral,
          PublicKeyToken=null
      canvasRect:
        serializedVersion: 2
        x: 218.01431
        y: 343.06088
        width: 160
        height: 30
    - id: 2
      fields:
      - title: Title
        value: New Dialogue Entry
        type: 0
        typeString: 
      - title: Pictures
        value: '[]'
        type: 3
        typeString: 
      - title: Description
        value: 
        type: 0
        typeString: 
      - title: Actor
        value: 1
        type: 5
        typeString: 
      - title: Conversant
        value: 2
        type: 5
        typeString: 
      - title: Menu Text
        value: What's wrong?
        type: 0
        typeString: 
      - title: Dialogue Text
        value: Something wrong?
        type: 0
        typeString: 
      - title: Parenthetical
        value: 
        type: 0
        typeString: 
      - title: Audio Files
        value: '[]'
        type: 3
        typeString: 
      - title: Video File
        value: 
        type: 0
        typeString: 
      - title: Sequence
        value: 
        type: 0
        typeString: 
      conversationID: 1
      isRoot: 0
      isGroup: 0
      nodeColor: 
      delaySimStatus: 0
      falseConditionAction: Block
      conditionPriority: 2
      outgoingLinks:
      - originConversationID: 1
        originDialogueID: 2
        destinationConversationID: 1
        destinationDialogueID: 6
        isConnector: 0
        priority: 2
      conditionsString: Variable["sympathy"] > 3
      userScript: 
      onExecute:
        m_PersistentCalls:
          m_Calls: []
        m_TypeName: UnityEngine.Events.UnityEvent, UnityEngine, Version=0.0.0.0, Culture=neutral,
          PublicKeyToken=null
      canvasRect:
        serializedVersion: 2
        x: 602.0626
        y: 227.95245
        width: 160
        height: 30
    - id: 3
      fields:
      - title: Title
        value: New Dialogue Entry
        type: 0
        typeString: 
      - title: Pictures
        value: '[]'
        type: 3
        typeString: 
      - title: Description
        value: 
        type: 0
        typeString: 
      - title: Actor
        value: 1
        type: 5
        typeString: 
      - title: Conversant
        value: 2
        type: 5
        typeString: 
      - title: Menu Text
        value: Goodbye.
        type: 0
        typeString: 
      - title: Dialogue Text
        value: Hostile Inflection detected. Avoiding confrontation.
        type: 0
        typeString: 
      - title: Parenthetical
        value: 
        type: 0
        typeString: 
      - title: Audio Files
        value: '[]'
        type: 3
        typeString: 
      - title: Video File
        value: 
        type: 0
        typeString: 
      - title: Sequence
        value: 
        type: 0
        typeString: 
      conversationID: 1
      isRoot: 0
      isGroup: 0
      nodeColor: 
      delaySimStatus: 0
      falseConditionAction: Block
      conditionPriority: 2
      outgoingLinks:
      - originConversationID: 1
        originDialogueID: 3
        destinationConversationID: 1
        destinationDialogueID: 5
        isConnector: 0
        priority: 2
      conditionsString: Variable["sympathy"] <= 3
      userScript: 
      onExecute:
        m_PersistentCalls:
          m_Calls: []
        m_TypeName: UnityEngine.Events.UnityEvent, UnityEngine, Version=0.0.0.0, Culture=neutral,
          PublicKeyToken=null
      canvasRect:
        serializedVersion: 2
        x: 607.4779
        y: 344.39447
        width: 160
        height: 30
    - id: 4
      fields:
      - title: Title
        value: New Dialogue Entry
        type: 0
        typeString: 
      - title: Pictures
        value: '[]'
        type: 3
        typeString: 
      - title: Description
        value: 
        type: 0
        typeString: 
      - title: Actor
        value: 2
        type: 5
        typeString: 
      - title: Conversant
        value: 1
        type: 5
        typeString: 
      - title: Menu Text
        value: 
        type: 0
        typeString: 
      - title: Dialogue Text
        value: Begone! Lest ye feel the wrath of Cap'n Rackham!
        type: 0
        typeString: 
      - title: Parenthetical
        value: 
        type: 0
        typeString: 
      - title: Audio Files
        value: '[]'
        type: 3
        typeString: 
      - title: Video File
        value: 
        type: 0
        typeString: 
      - title: Sequence
        value: 
        type: 0
        typeString: 
      conversationID: 1
      isRoot: 0
      isGroup: 0
      nodeColor: 
      delaySimStatus: 0
      falseConditionAction: Block
      conditionPriority: 2
      outgoingLinks:
      - originConversationID: 1
        originDialogueID: 4
        destinationConversationID: 1
        destinationDialogueID: 2
        isConnector: 0
        priority: 2
      - originConversationID: 1
        originDialogueID: 4
        destinationConversationID: 1
        destinationDialogueID: 3
        isConnector: 0
        priority: 2
      conditionsString: 
      userScript: 
      onExecute:
        m_PersistentCalls:
          m_Calls: []
        m_TypeName: UnityEngine.Events.UnityEvent, UnityEngine, Version=0.0.0.0, Culture=neutral,
          PublicKeyToken=null
      canvasRect:
        serializedVersion: 2
        x: 414.0968
        y: 343.6615
        width: 160
        height: 30
    - id: 5
      fields:
      - title: Title
        value: New Dialogue Entry
        type: 0
        typeString: 
      - title: Pictures
        value: '[]'
        type: 3
        typeString: 
      - title: Description
        value: 
        type: 0
        typeString: 
      - title: Actor
        value: 2
        type: 5
        typeString: 
      - title: Conversant
        value: 1
        type: 5
        typeString: 
      - title: Menu Text
        value: 
        type: 0
        typeString: 
      - title: Dialogue Text
        value: Rrr, ye made the right choice today, lass.
        type: 0
        typeString: 
      - title: Parenthetical
        value: 
        type: 0
        typeString: 
      - title: Audio Files
        value: '[]'
        type: 3
        typeString: 
      - title: Video File
        value: 
        type: 0
        typeString: 
      - title: Sequence
        value: 
        type: 0
        typeString: 
      conversationID: 1
      isRoot: 0
      isGroup: 0
      nodeColor: 
      delaySimStatus: 0
      falseConditionAction: Block
      conditionPriority: 2
      outgoingLinks: []
      conditionsString: 
      userScript: 
      onExecute:
        m_PersistentCalls:
          m_Calls: []
        m_TypeName: UnityEngine.Events.UnityEvent, UnityEngine, Version=0.0.0.0, Culture=neutral,
          PublicKeyToken=null
      canvasRect:
        serializedVersion: 2
        x: 798.20685
        y: 344.3798
        width: 160
        height: 30
    - id: 6
      fields:
      - title: Title
        value: New Dialogue Entry
        type: 0
        typeString: 
      - title: Pictures
        value: '[]'
        type: 3
        typeString: 
      - title: Description
        value: 
        type: 0
        typeString: 
      - title: Actor
        value: 2
        type: 5
        typeString: 
      - title: Conversant
        value: 1
        type: 5
        typeString: 
      - title: Menu Text
        value: 
        type: 0
        typeString: 
      - title: Dialogue Text
        value: Not unless yer name is Edward Teach! If it were, I'll shoot ye wer
          ye stand!
        type: 0
        typeString: 
      - title: Parenthetical
        value: 
        type: 0
        typeString: 
      - title: Audio Files
        value: '[]'
        type: 3
        typeString: 
      - title: Video File
        value: 
        type: 0
        typeString: 
      - title: Sequence
        value: 
        type: 0
        typeString: 
      conversationID: 1
      isRoot: 0
      isGroup: 0
      nodeColor: 
      delaySimStatus: 0
      falseConditionAction: Block
      conditionPriority: 2
      outgoingLinks:
      - originConversationID: 1
        originDialogueID: 6
        destinationConversationID: 1
        destinationDialogueID: 7
        isConnector: 0
        priority: 2
      conditionsString: 
      userScript: 
      onExecute:
        m_PersistentCalls:
          m_Calls: []
        m_TypeName: UnityEngine.Events.UnityEvent, UnityEngine, Version=0.0.0.0, Culture=neutral,
          PublicKeyToken=null
      canvasRect:
        serializedVersion: 2
        x: 789.2482
        y: 227.53271
        width: 160
        height: 30
    - id: 7
      fields:
      - title: Title
        value: New Dialogue Entry
        type: 0
        typeString: 
      - title: Pictures
        value: '[]'
        type: 3
        typeString: 
      - title: Description
        value: 
        type: 0
        typeString: 
      - title: Actor
        value: 1
        type: 5
        typeString: 
      - title: Conversant
        value: 2
        type: 5
        typeString: 
      - title: Menu Text
        value: I am Nandy.
        type: 0
        typeString: 
      - title: Dialogue Text
        value: Negative. My name is Nandy. Self-diagnostics tell me my model number
          is "GLTA-1512".
        type: 0
        typeString: 
      - title: Parenthetical
        value: 
        type: 0
        typeString: 
      - title: Audio Files
        value: '[]'
        type: 3
        typeString: 
      - title: Video File
        value: 
        type: 0
        typeString: 
      - title: Sequence
        value: 
        type: 0
        typeString: 
      conversationID: 1
      isRoot: 0
      isGroup: 0
      nodeColor: 
      delaySimStatus: 0
      falseConditionAction: Block
      conditionPriority: 2
      outgoingLinks:
      - originConversationID: 1
        originDialogueID: 7
        destinationConversationID: 1
        destinationDialogueID: 8
        isConnector: 0
        priority: 2
      conditionsString: 
      userScript: Variable["hasMetPlayer"] = true
      onExecute:
        m_PersistentCalls:
          m_Calls: []
        m_TypeName: UnityEngine.Events.UnityEvent, UnityEngine, Version=0.0.0.0, Culture=neutral,
          PublicKeyToken=null
      canvasRect:
        serializedVersion: 2
        x: 963.5659
        y: 228.25632
        width: 160
        height: 30
    - id: 8
      fields:
      - title: Title
        value: New Dialogue Entry
        type: 0
        typeString: 
      - title: Pictures
        value: '[]'
        type: 3
        typeString: 
      - title: Description
        value: 
        type: 0
        typeString: 
      - title: Actor
        value: 2
        type: 5
        typeString: 
      - title: Conversant
        value: 1
        type: 5
        typeString: 
      - title: Menu Text
        value: 
        type: 0
        typeString: 
      - title: Dialogue Text
        value: rrr...I see. Yer one o' them machines of ages past. Been a while since
          yer like came this way.
        type: 0
        typeString: 
      - title: Parenthetical
        value: 
        type: 0
        typeString: 
      - title: Audio Files
        value: '[]'
        type: 3
        typeString: 
      - title: Video File
        value: 
        type: 0
        typeString: 
      - title: Sequence
        value: 
        type: 0
        typeString: 
      conversationID: 1
      isRoot: 0
      isGroup: 0
      nodeColor: 
      delaySimStatus: 0
      falseConditionAction: Block
      conditionPriority: 2
      outgoingLinks:
      - originConversationID: 1
        originDialogueID: 8
        destinationConversationID: 1
        destinationDialogueID: 9
        isConnector: 0
        priority: 2
      conditionsString: 
      userScript: 
      onExecute:
        m_PersistentCalls:
          m_Calls: []
        m_TypeName: UnityEngine.Events.UnityEvent, UnityEngine, Version=0.0.0.0, Culture=neutral,
          PublicKeyToken=null
      canvasRect:
        serializedVersion: 2
        x: 1150.4639
        y: 227.8836
        width: 160
        height: 30
    - id: 9
      fields:
      - title: Title
        value: New Dialogue Entry
        type: 0
        typeString: 
      - title: Pictures
        value: '[]'
        type: 3
        typeString: 
      - title: Description
        value: 
        type: 0
        typeString: 
      - title: Actor
        value: 2
        type: 5
        typeString: 
      - title: Conversant
        value: 1
        type: 5
        typeString: 
      - title: Menu Text
        value: 
        type: 0
        typeString: 
      - title: Dialogue Text
        value: Would'a been a shame to blow yer 'ead off. Seem to remember your lot
          being somewhat useful...
        type: 0
        typeString: 
      - title: Parenthetical
        value: 
        type: 0
        typeString: 
      - title: Audio Files
        value: '[]'
        type: 3
        typeString: 
      - title: Video File
        value: 
        type: 0
        typeString: 
      - title: Sequence
        value: 
        type: 0
        typeString: 
      conversationID: 1
      isRoot: 0
      isGroup: 0
      nodeColor: 
      delaySimStatus: 0
      falseConditionAction: Block
      conditionPriority: 2
      outgoingLinks:
      - originConversationID: 1
        originDialogueID: 9
        destinationConversationID: 1
        destinationDialogueID: 10
        isConnector: 0
        priority: 2
      conditionsString: 
      userScript: 
      onExecute:
        m_PersistentCalls:
          m_Calls: []
        m_TypeName: UnityEngine.Events.UnityEvent, UnityEngine, Version=0.0.0.0, Culture=neutral,
          PublicKeyToken=null
      canvasRect:
        serializedVersion: 2
        x: 1341.0889
        y: 231.00864
        width: 160
        height: 30
    - id: 10
      fields:
      - title: Title
        value: New Dialogue Entry
        type: 0
        typeString: 
      - title: Pictures
        value: '[]'
        type: 3
        typeString: 
      - title: Description
        value: 
        type: 0
        typeString: 
      - title: Actor
        value: 2
        type: 5
        typeString: 
      - title: Conversant
        value: 1
        type: 5
        typeString: 
      - title: Menu Text
        value: 
        type: 0
        typeString: 
      - title: Dialogue Text
        value: Say, think you can help with a lit'le problem I'm 'aving?
        type: 0
        typeString: 
      - title: Parenthetical
        value: 
        type: 0
        typeString: 
      - title: Audio Files
        value: '[]'
        type: 3
        typeString: 
      - title: Video File
        value: 
        type: 0
        typeString: 
      - title: Sequence
        value: 
        type: 0
        typeString: 
      conversationID: 1
      isRoot: 0
      isGroup: 0
      nodeColor: 
      delaySimStatus: 0
      falseConditionAction: Block
      conditionPriority: 2
      outgoingLinks:
      - originConversationID: 1
        originDialogueID: 10
        destinationConversationID: 1
        destinationDialogueID: 11
        isConnector: 0
        priority: 2
      - originConversationID: 1
        originDialogueID: 10
        destinationConversationID: 1
        destinationDialogueID: 12
        isConnector: 0
        priority: 2
      conditionsString: CurrentQuestState("Ms. Bonny") == "unassigned"
      userScript: 
      onExecute:
        m_PersistentCalls:
          m_Calls: []
        m_TypeName: UnityEngine.Events.UnityEvent, UnityEngine, Version=0.0.0.0, Culture=neutral,
          PublicKeyToken=null
      canvasRect:
        serializedVersion: 2
        x: 1528.5887
        y: 234.13367
        width: 160
        height: 30
    - id: 11
      fields:
      - title: Title
        value: New Dialogue Entry
        type: 0
        typeString: CustomFieldType_Text
      - title: Pictures
        value: '[]'
        type: 3
        typeString: CustomFieldType_Files
      - title: Description
        value: 
        type: 0
        typeString: CustomFieldType_Text
      - title: Actor
        value: 1
        type: 5
        typeString: CustomFieldType_Actor
      - title: Conversant
        value: 2
        type: 5
        typeString: CustomFieldType_Actor
      - title: Menu Text
        value: Sure, tell me more.
        type: 0
        typeString: CustomFieldType_Text
      - title: Dialogue Text
        value: To what end?
        type: 0
        typeString: CustomFieldType_Text
      - title: Parenthetical
        value: 
        type: 0
        typeString: CustomFieldType_Text
      - title: Audio Files
        value: '[]'
        type: 3
        typeString: CustomFieldType_Files
      - title: Video File
        value: 
        type: 0
        typeString: CustomFieldType_Text
      - title: Sequence
        value: 
        type: 0
        typeString: CustomFieldType_Text
      conversationID: 1
      isRoot: 0
      isGroup: 0
      nodeColor: 
      delaySimStatus: 0
      falseConditionAction: Block
      conditionPriority: 2
      outgoingLinks:
      - originConversationID: 1
        originDialogueID: 11
        destinationConversationID: 1
        destinationDialogueID: 13
        isConnector: 0
        priority: 2
      conditionsString: 
      userScript: SetQuestState("Ms. Bonny", "active")
      onExecute:
        m_PersistentCalls:
          m_Calls: []
        m_TypeName: UnityEngine.Events.UnityEvent, UnityEngine, Version=0.0.0.0, Culture=neutral,
          PublicKeyToken=null
      canvasRect:
        serializedVersion: 2
        x: 1720.8795
        y: 298.19617
        width: 160
        height: 30
    - id: 12
      fields:
      - title: Title
        value: New Dialogue Entry
        type: 0
        typeString: 
      - title: Pictures
        value: '[]'
        type: 3
        typeString: 
      - title: Description
        value: 
        type: 0
        typeString: 
      - title: Actor
        value: 1
        type: 5
        typeString: 
      - title: Conversant
        value: 2
        type: 5
        typeString: 
      - title: Menu Text
        value: No.
        type: 0
        typeString: 
      - title: Dialogue Text
        value: No, I cannot help you right now.
        type: 0
        typeString: 
      - title: Parenthetical
        value: 
        type: 0
        typeString: 
      - title: Audio Files
        value: '[]'
        type: 3
        typeString: 
      - title: Video File
        value: 
        type: 0
        typeString: 
      - title: Sequence
        value: 
        type: 0
        typeString: 
      conversationID: 1
      isRoot: 0
      isGroup: 0
      nodeColor: 
      delaySimStatus: 0
      falseConditionAction: Block
      conditionPriority: 2
      outgoingLinks:
      - originConversationID: 1
        originDialogueID: 12
        destinationConversationID: 1
        destinationDialogueID: 14
        isConnector: 0
        priority: 2
      conditionsString: 
      userScript: 
      onExecute:
        m_PersistentCalls:
          m_Calls: []
        m_TypeName: UnityEngine.Events.UnityEvent, UnityEngine, Version=0.0.0.0, Culture=neutral,
          PublicKeyToken=null
      canvasRect:
        serializedVersion: 2
        x: 1713.4102
        y: 162.92834
        width: 160
        height: 30
    - id: 13
      fields:
      - title: Title
        value: New Dialogue Entry
        type: 0
        typeString: 
      - title: Pictures
        value: '[]'
        type: 3
        typeString: 
      - title: Description
        value: 
        type: 0
        typeString: 
      - title: Actor
        value: 2
        type: 5
        typeString: 
      - title: Conversant
        value: 1
        type: 5
        typeString: 
      - title: Menu Text
        value: 
        type: 0
        typeString: 
      - title: Dialogue Text
        value: Aww, good. Ye see, there's a man--if ye can call 'im such--by the name
          o' Teach. Thievin' bilge rat stole the love of me life, my sweet Ms. Bonny.
        type: 0
        typeString: 
      - title: Parenthetical
        value: 
        type: 0
        typeString: 
      - title: Audio Files
        value: '[]'
        type: 3
        typeString: 
      - title: Video File
        value: 
        type: 0
        typeString: 
      - title: Sequence
        value: 
        type: 0
        typeString: 
      conversationID: 1
      isRoot: 0
      isGroup: 0
      nodeColor: 
      delaySimStatus: 0
      falseConditionAction: Block
      conditionPriority: 2
      outgoingLinks:
      - originConversationID: 1
        originDialogueID: 13
        destinationConversationID: 1
        destinationDialogueID: 15
        isConnector: 0
        priority: 2
      conditionsString: 
      userScript: 
      onExecute:
        m_PersistentCalls:
          m_Calls: []
        m_TypeName: UnityEngine.Events.UnityEvent, UnityEngine, Version=0.0.0.0, Culture=neutral,
          PublicKeyToken=null
      canvasRect:
        serializedVersion: 2
        x: 1914.9724
        y: 298.58197
        width: 160
        height: 30
    - id: 14
      fields:
      - title: Title
        value: New Dialogue Entry
        type: 0
        typeString: 
      - title: Pictures
        value: '[]'
        type: 3
        typeString: 
      - title: Description
        value: 
        type: 0
        typeString: 
      - title: Actor
        value: 2
        type: 5
        typeString: 
      - title: Conversant
        value: 1
        type: 5
        typeString: 
      - title: Menu Text
        value: 
        type: 0
        typeString: 
      - title: Dialogue Text
        value: Off with ye then! Ain't 'ave no time fer yer nonsense!
        type: 0
        typeString: 
      - title: Parenthetical
        value: 
        type: 0
        typeString: 
      - title: Audio Files
        value: '[]'
        type: 3
        typeString: 
      - title: Video File
        value: 
        type: 0
        typeString: 
      - title: Sequence
        value: 
        type: 0
        typeString: 
      conversationID: 1
      isRoot: 0
      isGroup: 0
      nodeColor: 
      delaySimStatus: 0
      falseConditionAction: Block
      conditionPriority: 2
      outgoingLinks: []
      conditionsString: 
      userScript: 
      onExecute:
        m_PersistentCalls:
          m_Calls: []
        m_TypeName: UnityEngine.Events.UnityEvent, UnityEngine, Version=0.0.0.0, Culture=neutral,
          PublicKeyToken=null
      canvasRect:
        serializedVersion: 2
        x: 1927.4725
        y: 166.05322
        width: 160
        height: 30
    - id: 15
      fields:
      - title: Title
        value: New Dialogue Entry
        type: 0
        typeString: 
      - title: Pictures
        value: '[]'
        type: 3
        typeString: 
      - title: Description
        value: 
        type: 0
        typeString: 
      - title: Actor
        value: 2
        type: 5
        typeString: 
      - title: Conversant
        value: 1
        type: 5
        typeString: 
      - title: Menu Text
        value: 
        type: 0
        typeString: 
      - title: Dialogue Text
        value: She's not one to take lightly...yet she was swayed by promise o' dominion
          over the seas...my poor Bonny.  Ol' rotten Teach needs to pay fer 'is crime.
          Ruses ought be punished!
        type: 0
        typeString: 
      - title: Parenthetical
        value: 
        type: 0
        typeString: 
      - title: Audio Files
        value: '[]'
        type: 3
        typeString: 
      - title: Video File
        value: 
        type: 0
        typeString: 
      - title: Sequence
        value: 
        type: 0
        typeString: 
      conversationID: 1
      isRoot: 0
      isGroup: 0
      nodeColor: 
      delaySimStatus: 0
      falseConditionAction: Block
      conditionPriority: 2
      outgoingLinks:
      - originConversationID: 1
        originDialogueID: 15
        destinationConversationID: 1
        destinationDialogueID: 16
        isConnector: 0
        priority: 2
      conditionsString: 
      userScript: 
      onExecute:
        m_PersistentCalls:
          m_Calls: []
        m_TypeName: UnityEngine.Events.UnityEvent, UnityEngine, Version=0.0.0.0, Culture=neutral,
          PublicKeyToken=null
      canvasRect:
        serializedVersion: 2
        x: 2110.2847
        y: 301.3207
        width: 160
        height: 30
    - id: 16
      fields:
      - title: Title
        value: New Dialogue Entry
        type: 0
        typeString: 
      - title: Pictures
        value: '[]'
        type: 3
        typeString: 
      - title: Description
        value: 
        type: 0
        typeString: 
      - title: Actor
        value: 2
        type: 5
        typeString: 
      - title: Conversant
        value: 1
        type: 5
        typeString: 
      - title: Menu Text
        value: 
        type: 0
        typeString: 
      - title: Dialogue Text
        value: Should ye find where they're 'iding, do try to get her to see the error
          of her ways and return to me.
        type: 0
        typeString: 
      - title: Parenthetical
        value: 
        type: 0
        typeString: 
      - title: Audio Files
        value: '[]'
        type: 3
        typeString: 
      - title: Video File
        value: 
        type: 0
        typeString: 
      - title: Sequence
        value: 
        type: 0
        typeString: 
      conversationID: 1
      isRoot: 0
      isGroup: 0
      nodeColor: 
      delaySimStatus: 0
      falseConditionAction: Block
      conditionPriority: 2
      outgoingLinks:
      - originConversationID: 1
        originDialogueID: 16
        destinationConversationID: 1
        destinationDialogueID: 17
        isConnector: 0
        priority: 2
      conditionsString: 
      userScript: 
      onExecute:
        m_PersistentCalls:
          m_Calls: []
        m_TypeName: UnityEngine.Events.UnityEvent, UnityEngine, Version=0.0.0.0, Culture=neutral,
          PublicKeyToken=null
      canvasRect:
        serializedVersion: 2
        x: 2294.6597
        y: 304.44553
        width: 160
        height: 30
    - id: 17
      fields:
      - title: Title
        value: New Dialogue Entry
        type: 0
        typeString: 
      - title: Pictures
        value: '[]'
        type: 3
        typeString: 
      - title: Description
        value: 
        type: 0
        typeString: 
      - title: Actor
        value: 1
        type: 5
        typeString: 
      - title: Conversant
        value: 2
        type: 5
        typeString: 
      - title: Menu Text
        value: Leave it to me.
        type: 0
        typeString: 
      - title: Dialogue Text
        value: I'll do what I can. Please remain here for the time being.
        type: 0
        typeString: 
      - title: Parenthetical
        value: 
        type: 0
        typeString: 
      - title: Audio Files
        value: '[]'
        type: 3
        typeString: 
      - title: Video File
        value: 
        type: 0
        typeString: 
      - title: Sequence
        value: 
        type: 0
        typeString: 
      conversationID: 1
      isRoot: 0
      isGroup: 0
      nodeColor: 
      delaySimStatus: 0
      falseConditionAction: Block
      conditionPriority: 2
      outgoingLinks: []
      conditionsString: 
      userScript: 
      onExecute:
        m_PersistentCalls:
          m_Calls:
          - m_Target: {fileID: 0}
            m_MethodName: 
            m_Mode: 1
            m_Arguments:
              m_ObjectArgument: {fileID: 0}
              m_ObjectArgumentAssemblyTypeName: 
              m_IntArgument: 0
              m_FloatArgument: 0
              m_StringArgument: 
              m_BoolArgument: 0
            m_CallState: 2
        m_TypeName: UnityEngine.Events.UnityEvent, UnityEngine, Version=0.0.0.0, Culture=neutral,
          PublicKeyToken=null
      canvasRect:
        serializedVersion: 2
        x: 2480.599
        y: 301.65616
        width: 160
        height: 30
    - id: 18
      fields:
      - title: Title
        value: New Dialogue Entry
        type: 0
        typeString: 
      - title: Pictures
        value: '[]'
        type: 3
        typeString: 
      - title: Description
        value: 
        type: 0
        typeString: 
      - title: Actor
        value: 2
        type: 5
        typeString: 
      - title: Conversant
        value: 1
        type: 5
        typeString: 
      - title: Menu Text
        value: 
        type: 0
        typeString: 
      - title: Dialogue Text
        value: Ah, robot. 'ave ye changed yer mind about 'elping me?
        type: 0
        typeString: 
      - title: Parenthetical
        value: 
        type: 0
        typeString: 
      - title: Audio Files
        value: '[]'
        type: 3
        typeString: 
      - title: Video File
        value: 
        type: 0
        typeString: 
      - title: Sequence
        value: 
        type: 0
        typeString: 
      conversationID: 1
      isRoot: 0
      isGroup: 0
      nodeColor: 
      delaySimStatus: 0
      falseConditionAction: Block
      conditionPriority: 2
      outgoingLinks:
      - originConversationID: 1
        originDialogueID: 18
        destinationConversationID: 1
        destinationDialogueID: 11
        isConnector: 0
        priority: 2
      - originConversationID: 1
        originDialogueID: 18
        destinationConversationID: 1
        destinationDialogueID: 12
        isConnector: 0
        priority: 2
      conditionsString: (CurrentQuestState("Ms. Bonny") == "unassigned") and (Variable["hasMetPlayer"]
        == true)
      userScript: 
      onExecute:
        m_PersistentCalls:
          m_Calls: []
        m_TypeName: UnityEngine.Events.UnityEvent, UnityEngine, Version=0.0.0.0, Culture=neutral,
          PublicKeyToken=null
      canvasRect:
        serializedVersion: 2
        x: 1439.824
        y: 466.54138
        width: 160
        height: 30
    - id: 19
      fields:
      - title: Title
        value: New Dialogue Entry
        type: 0
        typeString: 
      - title: Pictures
        value: '[]'
        type: 3
        typeString: 
      - title: Description
        value: 
        type: 0
        typeString: 
      - title: Actor
        value: 2
        type: 5
        typeString: 
      - title: Conversant
        value: 1
        type: 5
        typeString: 
      - title: Menu Text
        value: 
        type: 0
        typeString: 
      - title: Dialogue Text
        value: Any news o' me sweet Bonny?
        type: 0
        typeString: 
      - title: Parenthetical
        value: 
        type: 0
        typeString: 
      - title: Audio Files
        value: '[]'
        type: 3
        typeString: 
      - title: Video File
        value: 
        type: 0
        typeString: 
      - title: Sequence
        value: 
        type: 0
        typeString: 
      conversationID: 1
      isRoot: 0
      isGroup: 0
      nodeColor: 
      delaySimStatus: 0
      falseConditionAction: Block
      conditionPriority: 2
      outgoingLinks:
      - originConversationID: 1
        originDialogueID: 19
        destinationConversationID: 1
        destinationDialogueID: 21
        isConnector: 0
        priority: 2
      - originConversationID: 1
        originDialogueID: 19
        destinationConversationID: 1
        destinationDialogueID: 20
        isConnector: 0
        priority: 2
      conditionsString: CurrentQuestState("Ms. Bonny") == "active" and (Variable["hasMetPlayer"]
        == true)
      userScript: 
      onExecute:
        m_PersistentCalls:
          m_Calls: []
        m_TypeName: UnityEngine.Events.UnityEvent, UnityEngine, Version=0.0.0.0, Culture=neutral,
          PublicKeyToken=null
      canvasRect:
        serializedVersion: 2
        x: 202.17654
        y: 545.47754
        width: 160
        height: 30
    - id: 20
      fields:
      - title: Title
        value: New Dialogue Entry
        type: 0
        typeString: 
      - title: Pictures
        value: '[]'
        type: 3
        typeString: 
      - title: Description
        value: 
        type: 0
        typeString: 
      - title: Actor
        value: 1
        type: 5
        typeString: 
      - title: Conversant
        value: 2
        type: 5
        typeString: 
      - title: Menu Text
        value: No.
        type: 0
        typeString: 
      - title: Dialogue Text
        value: Not yet. I'll come find you when I learn something.
        type: 0
        typeString: 
      - title: Parenthetical
        value: 
        type: 0
        typeString: 
      - title: Audio Files
        value: '[]'
        type: 3
        typeString: 
      - title: Video File
        value: 
        type: 0
        typeString: 
      - title: Sequence
        value: 
        type: 0
        typeString: 
      conversationID: 1
      isRoot: 0
      isGroup: 0
      nodeColor: 
      delaySimStatus: 0
      falseConditionAction: Block
      conditionPriority: 2
      outgoingLinks:
      - originConversationID: 1
        originDialogueID: 20
        destinationConversationID: 1
        destinationDialogueID: 24
        isConnector: 0
        priority: 2
      conditionsString: Variable["foundBonny"] == false
      userScript: 
      onExecute:
        m_PersistentCalls:
          m_Calls: []
        m_TypeName: UnityEngine.Events.UnityEvent, UnityEngine, Version=0.0.0.0, Culture=neutral,
          PublicKeyToken=null
      canvasRect:
        serializedVersion: 2
        x: 405.2694
        y: 546.1715
        width: 160
        height: 30
    - id: 21
      fields:
      - title: Title
        value: New Dialogue Entry
        type: 0
        typeString: 
      - title: Pictures
        value: '[]'
        type: 3
        typeString: 
      - title: Description
        value: 
        type: 0
        typeString: 
      - title: Actor
        value: 1
        type: 5
        typeString: 
      - title: Conversant
        value: 2
        type: 5
        typeString: 
      - title: Menu Text
        value: I found Ms. Bonny!
        type: 0
        typeString: 
      - title: Dialogue Text
        value: Yes. Ms. Bonny is at the shack on Triangle Island. She seemed to want
          to talk you about something...
        type: 0
        typeString: 
      - title: Parenthetical
        value: 
        type: 0
        typeString: 
      - title: Audio Files
        value: '[]'
        type: 3
        typeString: 
      - title: Video File
        value: 
        type: 0
        typeString: 
      - title: Sequence
        value: 
        type: 0
        typeString: 
      - title: Response Menu Sequence
        value: 
        type: 0
        typeString: 
      conversationID: 1
      isRoot: 0
      isGroup: 0
      nodeColor: 
      delaySimStatus: 0
      falseConditionAction: Block
      conditionPriority: 2
      outgoingLinks:
      - originConversationID: 1
        originDialogueID: 21
        destinationConversationID: 1
        destinationDialogueID: 22
        isConnector: 0
        priority: 2
      conditionsString: Variable["foundBonny"] == true
      userScript: 
      onExecute:
        m_PersistentCalls:
          m_Calls: []
        m_TypeName: UnityEngine.Events.UnityEvent, UnityEngine, Version=0.0.0.0, Culture=neutral,
          PublicKeyToken=null
      canvasRect:
        serializedVersion: 2
        x: 403.35312
        y: 620.0708
        width: 160
        height: 30
    - id: 22
      fields:
      - title: Title
        value: New Dialogue Entry
        type: 0
        typeString: 
      - title: Pictures
        value: '[]'
        type: 3
        typeString: 
      - title: Description
        value: 
        type: 0
        typeString: 
      - title: Actor
        value: 2
        type: 5
        typeString: 
      - title: Conversant
        value: 1
        type: 5
        typeString: 
      - title: Menu Text
        value: 
        type: 0
        typeString: 
      - title: Dialogue Text
        value: RARRRGGHHH! That's great news, lass!
        type: 0
        typeString: 
      - title: Parenthetical
        value: 
        type: 0
        typeString: 
      - title: Audio Files
        value: '[]'
        type: 3
        typeString: 
      - title: Video File
        value: 
        type: 0
        typeString: 
      - title: Sequence
        value: 
        type: 0
        typeString: 
      conversationID: 1
      isRoot: 0
      isGroup: 0
      nodeColor: 
      delaySimStatus: 0
      falseConditionAction: Block
      conditionPriority: 2
      outgoingLinks:
      - originConversationID: 1
        originDialogueID: 22
        destinationConversationID: 1
        destinationDialogueID: 23
        isConnector: 0
        priority: 2
      conditionsString: 
      userScript: 
      onExecute:
        m_PersistentCalls:
          m_Calls: []
        m_TypeName: UnityEngine.Events.UnityEvent, UnityEngine, Version=0.0.0.0, Culture=neutral,
          PublicKeyToken=null
      canvasRect:
        serializedVersion: 2
        x: 601.0002
        y: 620.65906
        width: 160
        height: 30
    - id: 23
      fields:
      - title: Title
        value: New Dialogue Entry
        type: 0
        typeString: 
      - title: Pictures
        value: '[]'
        type: 3
        typeString: 
      - title: Description
        value: 
        type: 0
        typeString: 
      - title: Actor
        value: 2
        type: 5
        typeString: 
      - title: Conversant
        value: 1
        type: 5
        typeString: 
      - title: Menu Text
        value: 
        type: 0
        typeString: 
      - title: Dialogue Text
        value: '...'
        type: 0
        typeString: 
      - title: Parenthetical
        value: 
        type: 0
        typeString: 
      - title: Audio Files
        value: '[]'
        type: 3
        typeString: 
      - title: Video File
        value: 
        type: 0
        typeString: 
      - title: Sequence
        value: 
        type: 0
        typeString: 
      conversationID: 1
      isRoot: 0
      isGroup: 0
      nodeColor: 
      delaySimStatus: 0
      falseConditionAction: Block
      conditionPriority: 2
      outgoingLinks:
      - originConversationID: 1
        originDialogueID: 23
        destinationConversationID: 1
        destinationDialogueID: 25
        isConnector: 0
        priority: 2
      conditionsString: 
      userScript: 
      onExecute:
        m_PersistentCalls:
          m_Calls: []
        m_TypeName: UnityEngine.Events.UnityEvent, UnityEngine, Version=0.0.0.0, Culture=neutral,
          PublicKeyToken=null
      canvasRect:
        serializedVersion: 2
        x: 599.82367
        y: 651.8355
        width: 160
        height: 30
    - id: 24
      fields:
      - title: Title
        value: New Dialogue Entry
        type: 0
        typeString: 
      - title: Pictures
        value: '[]'
        type: 3
        typeString: 
      - title: Description
        value: 
        type: 0
        typeString: 
      - title: Actor
        value: 2
        type: 5
        typeString: 
      - title: Conversant
        value: 1
        type: 5
        typeString: 
      - title: Menu Text
        value: 
        type: 0
        typeString: 
      - title: Dialogue Text
        value: Rrr...alright then...
        type: 0
        typeString: 
      - title: Parenthetical
        value: 
        type: 0
        typeString: 
      - title: Audio Files
        value: '[]'
        type: 3
        typeString: 
      - title: Video File
        value: 
        type: 0
        typeString: 
      - title: Sequence
        value: 
        type: 0
        typeString: 
      conversationID: 1
      isRoot: 0
      isGroup: 0
      nodeColor: 
      delaySimStatus: 0
      falseConditionAction: Block
      conditionPriority: 2
      outgoingLinks: []
      conditionsString: 
      userScript: 
      onExecute:
        m_PersistentCalls:
          m_Calls: []
        m_TypeName: UnityEngine.Events.UnityEvent, UnityEngine, Version=0.0.0.0, Culture=neutral,
          PublicKeyToken=null
      canvasRect:
        serializedVersion: 2
        x: 599.3871
        y: 547.93616
        width: 160
        height: 30
    - id: 25
      fields:
      - title: Title
        value: New Dialogue Entry
        type: 0
        typeString: 
      - title: Pictures
        value: '[]'
        type: 3
        typeString: 
      - title: Description
        value: 
        type: 0
        typeString: 
      - title: Actor
        value: 2
        type: 5
        typeString: 
      - title: Conversant
        value: 1
        type: 5
        typeString: 
      - title: Menu Text
        value: 
        type: 0
        typeString: 
      - title: Dialogue Text
        value: But Triangle Island ye say? That's the last place I'd expect to find
          'er at, what with all the tales we've 'eard about that place. She must be
          in a right mess if she's there.
        type: 0
        typeString: 
      - title: Parenthetical
        value: 
        type: 0
        typeString: 
      - title: Audio Files
        value: '[]'
        type: 3
        typeString: 
      - title: Video File
        value: 
        type: 0
        typeString: 
      - title: Sequence
        value: 
        type: 0
        typeString: 
      conversationID: 1
      isRoot: 0
      isGroup: 0
      nodeColor: 
      delaySimStatus: 0
      falseConditionAction: Block
      conditionPriority: 2
      outgoingLinks:
      - originConversationID: 1
        originDialogueID: 25
        destinationConversationID: 1
        destinationDialogueID: 26
        isConnector: 0
        priority: 2
      conditionsString: 
      userScript: 
      onExecute:
        m_PersistentCalls:
          m_Calls: []
        m_TypeName: UnityEngine.Events.UnityEvent, UnityEngine, Version=0.0.0.0, Culture=neutral,
          PublicKeyToken=null
      canvasRect:
        serializedVersion: 2
        x: 601.0002
        y: 684.1884
        width: 160
        height: 30
    - id: 26
      fields:
      - title: Title
        value: New Dialogue Entry
        type: 0
        typeString: 
      - title: Pictures
        value: '[]'
        type: 3
        typeString: 
      - title: Description
        value: 
        type: 0
        typeString: 
      - title: Actor
        value: 1
        type: 5
        typeString: 
      - title: Conversant
        value: 2
        type: 5
        typeString: 
      - title: Menu Text
        value: 
        type: 0
        typeString: 
      - title: Dialogue Text
        value: Maybe we should hurry there then.
        type: 0
        typeString: 
      - title: Parenthetical
        value: 
        type: 0
        typeString: 
      - title: Audio Files
        value: '[]'
        type: 3
        typeString: 
      - title: Video File
        value: 
        type: 0
        typeString: 
      - title: Sequence
        value: 
        type: 0
        typeString: 
      conversationID: 1
      isRoot: 0
      isGroup: 0
      nodeColor: 
      delaySimStatus: 0
      falseConditionAction: Block
      conditionPriority: 2
      outgoingLinks:
      - originConversationID: 1
        originDialogueID: 26
        destinationConversationID: 1
        destinationDialogueID: 27
        isConnector: 0
        priority: 2
      conditionsString: 
      userScript: 
      onExecute:
        m_PersistentCalls:
          m_Calls: []
        m_TypeName: UnityEngine.Events.UnityEvent, UnityEngine, Version=0.0.0.0, Culture=neutral,
          PublicKeyToken=null
      canvasRect:
        serializedVersion: 2
        x: 781.00024
        y: 618.8943
        width: 160
        height: 30
    - id: 27
      fields:
      - title: Title
        value: New Dialogue Entry
        type: 0
        typeString: 
      - title: Pictures
        value: '[]'
        type: 3
        typeString: 
      - title: Description
        value: 
        type: 0
        typeString: 
      - title: Actor
        value: 2
        type: 5
        typeString: 
      - title: Conversant
        value: 1
        type: 5
        typeString: 
      - title: Menu Text
        value: 
        type: 0
        typeString: 
      - title: Dialogue Text
        value: Mmm...right. I'll meet ya there, Nand...
        type: 0
        typeString: 
      - title: Parenthetical
        value: 
        type: 0
        typeString: 
      - title: Audio Files
        value: '[]'
        type: 3
        typeString: 
      - title: Video File
        value: 
        type: 0
        typeString: 
      - title: Sequence
        value: 
        type: 0
        typeString: 
      conversationID: 1
      isRoot: 0
      isGroup: 0
      nodeColor: 
      delaySimStatus: 0
      falseConditionAction: Block
      conditionPriority: 2
      outgoingLinks: []
      conditionsString: 
      userScript: 
      onExecute:
        m_PersistentCalls:
          m_Calls: []
        m_TypeName: UnityEngine.Events.UnityEvent, UnityEngine, Version=0.0.0.0, Culture=neutral,
          PublicKeyToken=null
      canvasRect:
        serializedVersion: 2
        x: 964.52966
        y: 618.306
        width: 160
        height: 30
  - id: 2
    fields:
    - title: Title
      value: AnneBonny0
      type: 0
      typeString: 
    - title: Pictures
      value: '[]'
      type: 3
      typeString: 
    - title: Description
      value: 
      type: 0
      typeString: 
    - title: Actor
      value: 1
      type: 5
      typeString: CustomFieldType_Actor
    - title: Conversant
      value: 2
      type: 5
      typeString: CustomFieldType_Actor
    overrideSettings:
      useOverrides: 0
      overrideSubtitleSettings: 0
      showNPCSubtitlesDuringLine: 1
      showNPCSubtitlesWithResponses: 1
      showPCSubtitlesDuringLine: 0
      subtitleCharsPerSecond: 30
      minSubtitleSeconds: 2
      continueButton: 0
      overrideSequenceSettings: 0
      defaultSequence: 
      defaultPlayerSequence: 
      defaultResponseMenuSequence: 
      overrideInputSettings: 0
      alwaysForceResponseMenu: 1
      responseTimeout: 0
    nodeColor: 
    dialogueEntries:
    - id: 0
      fields:
      - title: Title
        value: START
        type: 0
        typeString: 
      - title: Pictures
        value: '[]'
        type: 3
        typeString: 
      - title: Description
        value: 
        type: 0
        typeString: 
      - title: Actor
        value: 1
        type: 5
        typeString: 
      - title: Conversant
        value: 2
        type: 5
        typeString: 
      - title: Menu Text
        value: 
        type: 0
        typeString: 
      - title: Dialogue Text
        value: 
        type: 0
        typeString: 
      - title: Parenthetical
        value: 
        type: 0
        typeString: 
      - title: Audio Files
        value: '[]'
        type: 3
        typeString: 
      - title: Video File
        value: 
        type: 0
        typeString: 
      - title: Sequence
        value: None()
        type: 0
        typeString: 
      conversationID: 2
      isRoot: 0
      isGroup: 0
      nodeColor: 
      delaySimStatus: 0
      falseConditionAction: Block
      conditionPriority: 2
      outgoingLinks:
      - originConversationID: 2
        originDialogueID: 0
        destinationConversationID: 2
        destinationDialogueID: 1
        isConnector: 0
        priority: 2
      conditionsString: 
      userScript: 
      onExecute:
        m_PersistentCalls:
          m_Calls:
          - m_Target: {fileID: 11400000, guid: b61c9680be9edc144a1914a0c533631e, type: 2}
            m_MethodName: SyncStats
            m_Mode: 1
            m_Arguments:
              m_ObjectArgument: {fileID: 0}
              m_ObjectArgumentAssemblyTypeName: UnityEngine.Object, UnityEngine
              m_IntArgument: 0
              m_FloatArgument: 0
              m_StringArgument: 
              m_BoolArgument: 0
            m_CallState: 2
        m_TypeName: UnityEngine.Events.UnityEvent, UnityEngine, Version=0.0.0.0, Culture=neutral,
          PublicKeyToken=null
      canvasRect:
        serializedVersion: 2
        x: 29.991241
        y: 23.479477
        width: 160
        height: 30
    - id: 1
      fields:
      - title: Title
        value: New Dialogue Entry
        type: 0
        typeString: 
      - title: Pictures
        value: '[]'
        type: 3
        typeString: 
      - title: Description
        value: 
        type: 0
        typeString: 
      - title: Actor
        value: 3
        type: 5
        typeString: 
      - title: Conversant
        value: 1
        type: 5
        typeString: 
      - title: Menu Text
        value: 
        type: 0
        typeString: 
      - title: Dialogue Text
        value: you found me, ms bonny yada yada yada
        type: 0
        typeString: 
      - title: Parenthetical
        value: 
        type: 0
        typeString: 
      - title: Audio Files
        value: '[]'
        type: 3
        typeString: 
      - title: Video File
        value: 
        type: 0
        typeString: 
      - title: Sequence
        value: 
        type: 0
        typeString: 
      conversationID: 2
      isRoot: 0
      isGroup: 0
      nodeColor: 
      delaySimStatus: 0
      falseConditionAction: Block
      conditionPriority: 2
      outgoingLinks: []
      conditionsString: CurrentQuestState("Ms. Bonny") == "active"
      userScript: Variable["foundBonny"] = true
      onExecute:
        m_PersistentCalls:
          m_Calls: []
        m_TypeName: UnityEngine.Events.UnityEvent, UnityEngine, Version=0.0.0.0, Culture=neutral,
          PublicKeyToken=null
      canvasRect:
        serializedVersion: 2
        x: 240.22736
        y: 20.880905
        width: 160
        height: 30
  syncInfo:
    syncActors: 0
    syncItems: 0
    syncLocations: 0
    syncVariables: 0
    syncActorsDatabase: {fileID: 0}
    syncItemsDatabase: {fileID: 0}
    syncLocationsDatabase: {fileID: 0}
    syncVariablesDatabase: {fileID: 0}
